// Jest Snapshot v1, https://goo.gl/fbAQLP

exports[`BalanceFormat renders correctly 1`] = `
Array [
  <h2
    className="sc-bdVaJa eyqtFb"
    size="large"
  >
    -100
  </h2>,
  <h2
    className="sc-bdVaJa cRmMqB"
    size="large"
  >
    100
  </h2>,
]
`;
